<?xml version="1.0" encoding="UTF-8"?>
<svg width="240px" height="42px" viewBox="0 0 240 42" version="1.1" xmlns="http://www.w3.org/2000/svg" xmlns:xlink="http://www.w3.org/1999/xlink">
    <!-- Generator: Sketch 46.2 (44496) - http://www.bohemiancoding.com/sketch -->
    <title>Logo WhiteSVG</title>
    <desc>Created with Sketch.</desc>
    <defs></defs>
    <g id="Symbols" stroke="none" stroke-width="1" fill="none" fill-rule="evenodd">
        <g id="Navbar" fill-rule="nonzero" fill="#FFFFFF">
            <g id="Logo">
                <g id="Logotype" transform="translate(55.000000, 8.000000)">
                    <polygon id="Shape" points="13.9513761 15.0171429 10.7266055 7.54285714 7.33211009 15.0171429 5.97431193 18.1371429 3.53027523 23.4857143 0 23.4857143 10.7944954 0.0685714286 21.2155963 23.4857143 17.6174312 23.4857143 15.3431193 18.1371429"></polygon>
                    <polygon id="Shape" points="32.9605505 10.2514286 41.446789 1.47428571 45.8256881 1.47428571 35.9816514 11.4514286 45.893578 23.52 41.4807339 23.52 33.6394495 13.7142857 32.9605505 14.4 32.9605505 23.52 29.6678899 23.52 29.6678899 1.47428571 32.9605505 1.47428571"></polygon>
                    <path d="M66.1587156,4.76571429 L63.4770642,6.37714286 C62.9678899,5.48571429 62.4926606,4.93714286 62.0513761,4.66285714 C61.5761468,4.35428571 60.9651376,4.21714286 60.2183486,4.21714286 C59.3018349,4.21714286 58.5550459,4.49142857 57.9440367,5.00571429 C57.3330275,5.52 57.0275229,6.17142857 57.0275229,6.96 C57.0275229,8.02285714 57.8082569,8.91428571 59.4036697,9.56571429 L61.5761468,10.4571429 C63.3412844,11.1771429 64.6311927,12.0685714 65.4458716,13.0971429 C66.2605505,14.1257143 66.6678899,15.4285714 66.6678899,16.9371429 C66.6678899,18.96 65.9889908,20.64 64.6651376,21.9428571 C63.3073394,23.28 61.6440367,23.9314286 59.6412844,23.9314286 C57.740367,23.9314286 56.1788991,23.3828571 54.9568807,22.2514286 C53.7348624,21.12 52.9880734,19.5428571 52.6825688,17.4857143 L56.0091743,16.7314286 C56.1449541,18.0342857 56.4165138,18.9257143 56.7899083,19.4057143 C57.4688073,20.3657143 58.453211,20.8457143 59.7431193,20.8457143 C60.7614679,20.8457143 61.6100917,20.5028571 62.2889908,19.8171429 C62.9678899,19.1314286 63.3073394,18.24 63.3073394,17.1771429 C63.3073394,16.7314286 63.2394495,16.3542857 63.1376147,16.0114286 C63.0357798,15.6685714 62.8321101,15.3257143 62.5944954,15.0171429 C62.3568807,14.7085714 62.0174312,14.4342857 61.6100917,14.16 C61.2027523,13.8857143 60.7275229,13.6457143 60.1844037,13.4057143 L58.0798165,12.5142857 C55.0926606,11.2457143 53.5990826,9.36 53.5990826,6.92571429 C53.5990826,5.28 54.2100917,3.87428571 55.466055,2.77714286 C56.7220183,1.64571429 58.2834862,1.09714286 60.1504587,1.09714286 C62.7981651,1.06285714 64.7330275,2.29714286 66.1587156,4.76571429 Z" id="Shape"></path>
                    <polygon id="Shape" points="79.7706422 1.47428571 79.7706422 23.4857143 76.4779817 23.4857143 76.4779817 1.47428571"></polygon>
                    <polygon id="Shape" points="94.0954128 10.2514286 102.581651 1.47428571 106.96055 1.47428571 97.1165138 11.4514286 107.02844 23.52 102.615596 23.52 94.740367 13.7142857 94.0614679 14.4 94.0614679 23.52 90.7688073 23.52 90.7688073 1.47428571 94.0614679 1.47428571 94.0614679 10.2514286"></polygon>
                    <path d="M113.410092,12.3771429 C113.410092,9.29142857 114.530275,6.61714286 116.770642,4.38857143 C119.011009,2.16 121.692661,1.06285714 124.849541,1.06285714 C127.972477,1.06285714 130.620183,2.19428571 132.826606,4.42285714 C135.066972,6.65142857 136.187156,9.36 136.187156,12.5142857 C136.187156,15.6685714 135.066972,18.3771429 132.826606,20.5714286 C130.586239,22.8 127.870642,23.8971429 124.679817,23.8971429 C121.862385,23.8971429 119.350459,22.9028571 117.110092,20.9485714 C114.63211,18.7542857 113.410092,15.9085714 113.410092,12.3771429 Z M116.736697,12.4457143 C116.736697,14.88 117.551376,16.8685714 119.180734,18.4457143 C120.776147,20.0228571 122.643119,20.8114286 124.747706,20.8114286 C127.022018,20.8114286 128.956881,20.0228571 130.552294,18.4114286 C132.113761,16.8 132.894495,14.8114286 132.894495,12.5142857 C132.894495,10.1485714 132.113761,8.19428571 130.552294,6.61714286 C129.024771,5.00571429 127.089908,4.21714286 124.815596,4.21714286 C122.541284,4.21714286 120.640367,5.00571429 119.078899,6.61714286 C117.517431,8.16 116.736697,10.1142857 116.736697,12.4457143 Z" id="Shape"></path>
                    <path d="M146.133028,23.4857143 L146.133028,1.47428571 L150.715596,1.47428571 C152.922018,1.47428571 154.653211,1.68 155.909174,2.12571429 C157.266972,2.57142857 158.522936,3.29142857 159.609174,4.32 C161.849541,6.37714286 162.969725,9.12 162.969725,12.48 C162.969725,15.8742857 161.781651,18.6171429 159.43945,20.7085714 C158.251376,21.7371429 157.029358,22.4914286 155.73945,22.9028571 C154.551376,23.3142857 152.820183,23.52 150.613761,23.52 L146.133028,23.52 L146.133028,23.4857143 Z M149.425688,20.3657143 L150.919266,20.3657143 C152.412844,20.3657143 153.634862,20.1942857 154.619266,19.8857143 C155.60367,19.5428571 156.486239,19.0285714 157.266972,18.3085714 C158.89633,16.8 159.711009,14.88 159.711009,12.48 C159.711009,10.08 158.89633,8.09142857 157.300917,6.61714286 C155.875229,5.28 153.736697,4.59428571 150.919266,4.59428571 L149.425688,4.59428571 L149.425688,20.3657143 Z" id="Shape"></path>
                    <polygon id="Shape" points="184.93211 4.59428571 176.174312 4.59428571 176.174312 9.87428571 184.66055 9.87428571 184.66055 13.0285714 176.174312 13.0285714 176.174312 20.4 184.93211 20.4 184.93211 23.52 172.915596 23.52 172.915596 1.47428571 184.93211 1.47428571"></polygon>
                </g>
                <g id="Logogram">
                    <path d="M30.7382812,3.15867769 L35.9453125,6.62975207 C35.9453125,6.62975207 35.9453125,6.62975207 35.9453125,6.62975207 L37.1546875,7.42809917 L37.1546875,17.9454545 L37.1882812,17.9454545 C37.8265625,17.1471074 38.5992187,16.4528926 39.50625,15.9669421 L39.50625,6.10909091 L30.7046875,0.242975207 L30.7382812,3.15867769 Z" id="Shape"></path>
                    <path d="M12.3625,0.242975207 L3.5609375,6.10909091 L3.5609375,15.9669421 C4.46796875,16.4528926 5.240625,17.1471074 5.87890625,17.9454545 L5.9125,17.9454545 L5.9125,7.42809917 L7.02109375,6.69917355 C7.02109375,6.69917355 7.02109375,6.69917355 7.02109375,6.69917355 L12.3625,3.15867769 L12.3625,0.242975207 Z" id="Shape"></path>
                    <polygon id="Shape" points="21.5671875 38.8760331 15.3859375 34.7454545 14.3445313 36.9669421 21.5671875 41.7570248 28.75625 36.9669421 27.7484375 34.7454545"></polygon>
                    <path d="M40.2453125,17.4247934 C40.178125,17.4595041 40.1109375,17.4942149 40.0101563,17.5636364 C40.0101563,17.5636364 40.0101563,17.5636364 39.9765625,17.5636364 C39.371875,17.9107438 38.834375,18.3966942 38.43125,18.9520661 C37.7257813,19.8892562 37.2554688,21.0347107 37.1882813,22.2842975 C37.1882813,22.2842975 37.1882813,22.2495868 37.1546875,22.2495868 L37.1546875,28.4628099 L31.6789063,32.107438 L21.5671875,10.0661157 L21.5671875,10.0661157 L21.5671875,10.0661157 L11.421875,32.107438 L5.9125,28.4628099 L5.9125,22.5619835 C5.9125,22.5619835 5.9125,22.5619835 5.9125,22.5619835 C5.87890625,21.2082645 5.40859375,19.9586777 4.6359375,18.9520661 C4.19921875,18.3966942 3.66171875,17.9107438 3.090625,17.5636364 C3.090625,17.5636364 3.090625,17.5636364 3.05703125,17.5636364 C2.98984375,17.5289256 2.92265625,17.4595041 2.821875,17.4247934 C2.015625,16.9735537 1.10859375,16.7305785 0.134375,16.7305785 L0.134375,19.1603306 C2.015625,19.1603306 3.52734375,20.722314 3.52734375,22.6661157 L3.52734375,29.7818182 L10.346875,34.2942149 L12.3289063,35.6132231 L12.3289063,35.6132231 L12.3289063,35.6132231 L21.5,15.6892562 L30.6710938,35.6132231 L30.6710938,35.6132231 L30.6710938,35.6132231 L32.653125,34.2942149 L39.4726563,29.7818182 L39.4726563,22.6661157 C39.4726563,20.722314 40.984375,19.1603306 42.865625,19.1603306 L42.865625,16.7305785 C41.9585938,16.7305785 41.0515625,16.9735537 40.2453125,17.4247934 Z" id="Shape"></path>
                </g>
            </g>
        </g>
    </g>
</svg>